%YAML 1.1
%TAG !u! tag:unity3d.com,2011:
--- !u!21 &2100000
Material:
  serializedVersion: 6
  m_ObjectHideFlags: 0
  m_CorrespondingSourceObject: {fileID: 0}
  m_PrefabInstance: {fileID: 0}
  m_PrefabAsset: {fileID: 0}
  m_Name: JellyMaterial
  m_Shader: {fileID: 4800000, guid: f8e2acc75b227a44c8fb810f20e25443, type: 3}
  m_ShaderKeywords: 
  m_LightmapFlags: 4
  m_EnableInstancingVariants: 0
  m_DoubleSidedGI: 0
  m_CustomRenderQueue: -1
  stringTagMap: {}
  disabledShaderPasses: []
  m_SavedProperties:
    serializedVersion: 3
    m_TexEnvs:
    - _MainTex:
        m_Texture: {fileID: 0}
        m_Scale: {x: 1, y: 1}
        m_Offset: {x: 0, y: 0}
    m_Floats:
    - _Amplitude: 0.1
    - _ControlTime: 0
    - _Frequency: 362
    - _Glossiness: 0.778
    - _ImpactSpeed: 0.2
    - _MaxWaveDistortion: 1
    - _Metallic: 0.731
    - _WaveFalloff: 4
    - _WaveSpeed: -5
    m_Colors:
    - _Color: {r: 0.31985295, g: 0.74264693, b: 0.85294116, a: 1}
    - _ImpactOrigin: {r: -5, g: 0, b: 0, a: 0}
    - _ModelOrigin: {r: 0, g: 0, b: 0, a: 0}
